^C:\USERS\МУХАМАД\SOURCE\REPOS\PROJECT13\PROJECT13\SOURCE.CPP
C:\USERS\мухамад\SOURCE\REPOS\PROJECT13\PROJECT13\DEBUG\VC141.PDB
C:\USERS\мухамад\SOURCE\REPOS\PROJECT13\PROJECT13\DEBUG\VC141.IDB
C:\USERS\мухамад\SOURCE\REPOS\PROJECT13\PROJECT13\DEBUG\SOURCE.OBJ
